{
  "name": "Fedora",
  "detail": [
    "The name of Fedora derives from Fedora Linux, a volunteer project that provided extra software for the Red Hat Linux distribution, and from the characteristic fedora hat used in Red Hat's \"Shadowman\" logo. Warren Togami began Fedora Linux in 2002 as an undergraduate project at the University of Hawaii, intended to provide a single repository for well-tested third-party software packages so that non-Red Hat software would be easier to find, develop, and use. The key difference between Fedora Linux and Red Hat Linux was that Fedora's repository development would be collaborative with the global volunteer community. Fedora Linux was eventually absorbed into the Fedora Project, carrying with it this collaborative approach.",
    "Fedora Linux was launched in 2003, when Red Hat Linux was discontinued. Red Hat Enterprise Linux was to be Red Hat's only officially supported Linux distribution, while Fedora was to be a community distribution. Red Hat Enterprise Linux branches its releases from versions of Fedora.",
    "Before Fedora 7, Fedora was called Fedora Core after the name of one of the two main software repositories - Core and Extras. Fedora Core contained all the base packages that were required by the operating system, as well as other packages that were distributed along with the installation CD/DVDs, and was maintained only by Red Hat developers. Fedora Extras, the secondary repository that had been included since Fedora Core 3, was community-maintained and not distributed along with the installation CD/DVDs. Upon the release of Fedora 7, the distinction between Fedora Core and Fedora Extras was eliminated.",
    "Since the release of Fedora 21, as an effort to modularize the Fedora distribution and make development more agile, three different versions are available: Workstation, focused on the personal computer, Server and Atomic for servers, Atomic being the version meant for cloud computing.",
    "Fedora is a trademark of Red Hat, Inc. Red Hat's application for trademark status for the name \"Fedora\" was disputed by Cornell University and the University of Virginia Library, creators of the unrelated Fedora Commons digital repository management software.  The issue was resolved and the parties settled on a co-existence agreement that stated that the Cornell-UVA project could use the name when clearly associated with open source software for digital object repository systems and that Red Hat could use the name when it was clearly associated with open source computer operating systems.",
    "In April 2020, project leader Matthew Miller announced that Fedora Workstation would be shipping on select new ThinkPad laptops, thanks to a new partnership with Lenovo."
  ],
  "info": [
    {
      "title": "Developer",
      "value": "Fedora Project (sponsored by Red Hat Inc.)"
    },
    {
      "title": "OS family",
      "value": "Unix-like"
    },
    {
      "title": "Working state",
      "value": "Current"
    },
    {
      "title": "Source model",
      "value": "Open-source"
    },
    {
      "title": "Initial release",
      "value": "6 November 2003; 16 years ago"
    },
    {
      "title": "Latest release",
      "value": "32 / April 28, 2020; 10 days ago"
    },
    {
      "title": "Latest preview",
      "value": "32 / March 17, 2020; 52 days ago\n"
    },
    {
      "title": "Default user interface",
      "value": "GNOME Shell"
    },
    {
      "title": "Official website",
      "value": "<a href=\"https://getfedora.org/\">getfedora.org</a>"
    }
  ]
}